…
defining `n.seed` allows for reproducibility.

### HLA antibodies

the function `abs.df()` allows to generate a data frame with HLA antibodies from a candidates waiting list:

```
abs.df(candidates = candidates.df(n=10), 
       n.seed = 3)
       
# A tibble: 41 x 2
   ID    abs  
   <chr> <chr>
 1 K8    A25  
 2 K8    DR16 
 3 K8    A33  
 4 K8    B51  
 5 K9    A24  
 6 K9    DR16 
 7 K9    A33  
 8 K9    B52  
 9 K9    B49  
10 K9    DR16 
# ... with 31 more rows
```
…
