…
defining `n_seed` allows for reproducibility.

### HLA antibodies

the function `Abs_df()` allows to generate a data frame with HLA antibodies from a candidates waiting list:

```
Abs_df(candidates = candidates_df(n=10), 
       n_seed = 3)
       
# A tibble: 49 x 2
   ID    Abs  
   <chr> <chr>
 1 K3    A25  
 2 K3    DR4  
 3 K8    A25  
 4 K8    DR16 
 5 K8    A33  
 6 K8    B51  
 7 K8    B48  
 8 K8    DR16 
 9 K8    B52  
10 K8    B55  
# ... with 39 more rows
```
…
