Simulate data for Kidney transplantation • simK
…
MS matchabilily score are the deciles obtained from the number of donors on dataset D10K that are a match to each transplant candidate. This score takes into account a patient’s blood type, HLA type and cPRA value. A patient with a MS = 1 is defined as easy to match and a MS = 10 as difficult to match.

RRI when option uk = TRUE, Recipient Risk Index is copmputed as described by transplantr. To compute RRI, variables age, time on dialysis (in days) and the probability of being diabetic (obtained from prob_dm) are used. Also, we assumed all patients were on dialysis at time of listing.

defining n_seed allows for reproducibility.

HLA antibodies

the function Abs_df() allows to generate a data frame with HLA antibodies from a candidates waiting list:

Abs_df(candidates = candidates_df(n=10), 
       n_seed = 3)
       
# A tibble: 49 x 2
   ID    Abs  
   <chr> <chr>
 1 K3    A25  
 2 K3    DR4  
 3 K8    A25  
 4 K8    DR16 
 5 K8    A33  
 6 K8    B51  
 7 K8    B48  
 8 K8    DR16 
 9 K8    B52  
10 K8    B55  
# ... with 39 more rows
…
